[
  {
    "uuid": "7e5caef5-7bd8-3996-835e-e4044f674c75",
    "name": "t0rched"
  },
  {
    "uuid": "cc59df34-20d7-377d-811e-1e11d5570ca0",
    "name": "newuser"
  },
  {
    "uuid": "d3162a2d-c82a-3362-9e37-36c73b7c21cf",
    "name": "mangiac"
  }
]