{
  "group": "Stranger",
  "location": {
    "world": "world",
    "x": -32.643076197704644,
    "y": 64.0,
    "z": -255.38549938217756,
    "yaw": -227.4003,
    "pitch": 24.749996
  },
  "operator": false,
  "can-fly": false,
  "walk-speed": 0.2,
  "fly-speed": 0.1
}