{
  "group": "Stranger",
  "location": {
    "world": "world",
    "x": -28.5,
    "y": 128.0,
    "z": -259.5,
    "yaw": 0.0,
    "pitch": 0.0
  },
  "operator": false,
  "can-fly": false,
  "walk-speed": 0.2,
  "fly-speed": 0.1
}