{
  "group": "",
  "location": {
    "world": "world",
    "x": 5.259638058655288,
    "y": 67.0,
    "z": 251.5416199556599,
    "yaw": 78.150024,
    "pitch": 1.7999984
  },
  "operator": false,
  "can-fly": false,
  "walk-speed": 0.2,
  "fly-speed": 0.1
}