{
  "group": "Stranger",
  "location": {
    "world": "world",
    "x": -720.1104697554917,
    "y": 63.0,
    "z": -385.8298791582027,
    "yaw": -69.899536,
    "pitch": -3.6000268
  },
  "operator": false,
  "can-fly": false,
  "walk-speed": 0.2,
  "fly-speed": 0.1
}